{
  "project_info": {
    "project_number": "165654032924",
    "firebase_url": "https://tfmodel-25290.firebaseio.com",
    "project_id": "tfmodel-25290",
    "storage_bucket": "tfmodel-25290.appspot.com"
  },
  "client": [
    {
      "client_info": {
        "mobilesdk_app_id": "1:165654032924:android:8d5024edb68749606225d9",
        "android_client_info": {
          "package_name": "com.kerala.spashactivity"
        }
      },
      "oauth_client": [
        {
          "client_id": "165654032924-rmonmvmh0su43uuh39t8hctoi0lqkm7h.apps.googleusercontent.com",
          "client_type": 1,
          "android_info": {
            "package_name": "com.kerala.spashactivity",
            "certificate_hash": "fa643a9dd45250074491841b7be009fd456b637d"
          }
        },
        {
          "client_id": "165654032924-p1hkh38nue24538sss551h9rb3i634b3.apps.googleusercontent.com",
          "client_type": 3
        }
      ],
      "api_key": [
        {
          "current_key": "AIzaSyDDPDRavW-CrBMMRuHlOeWVjhCv1Av-Jas"
        }
      ],
      "services": {
        "appinvite_service": {
          "other_platform_oauth_client": [
            {
              "client_id": "165654032924-p1hkh38nue24538sss551h9rb3i634b3.apps.googleusercontent.com",
              "client_type": 3
            }
          ]
        }
      }
    }
  ],
  "configuration_version": "1"
}